%YAML 1.1
%TAG !u! tag:unity3d.com,2011:
--- !u!1001 &7251019872367601780
PrefabInstance:
  m_ObjectHideFlags: 0
  serializedVersion: 2
  m_Modification:
    m_TransformParent: {fileID: 0}
    m_Modifications:
    - target: {fileID: 3554087018693478455, guid: 0bce1ad3c6237a54a93db7f869f08ab7,
        type: 3}
      propertyPath: m_Name
      value: "Bia\u0142yToken"
      objectReference: {fileID: 0}
    - target: {fileID: 4160656893214053867, guid: 0bce1ad3c6237a54a93db7f869f08ab7,
        type: 3}
      propertyPath: m_LocalPosition.x
      value: -22.947002
      objectReference: {fileID: 0}
    - target: {fileID: 4160656893214053867, guid: 0bce1ad3c6237a54a93db7f869f08ab7,
        type: 3}
      propertyPath: m_LocalPosition.y
      value: 33.537
      objectReference: {fileID: 0}
    - target: {fileID: 4160656893214053867, guid: 0bce1ad3c6237a54a93db7f869f08ab7,
        type: 3}
      propertyPath: m_LocalPosition.z
      value: 63.210995
      objectReference: {fileID: 0}
    - target: {fileID: 4160656893214053867, guid: 0bce1ad3c6237a54a93db7f869f08ab7,
        type: 3}
      propertyPath: m_LocalRotation.x
      value: 0
      objectReference: {fileID: 0}
    - target: {fileID: 4160656893214053867, guid: 0bce1ad3c6237a54a93db7f869f08ab7,
        type: 3}
      propertyPath: m_LocalRotation.y
      value: 0
      objectReference: {fileID: 0}
    - target: {fileID: 4160656893214053867, guid: 0bce1ad3c6237a54a93db7f869f08ab7,
        type: 3}
      propertyPath: m_LocalRotation.z
      value: 0
      objectReference: {fileID: 0}
    - target: {fileID: 4160656893214053867, guid: 0bce1ad3c6237a54a93db7f869f08ab7,
        type: 3}
      propertyPath: m_LocalRotation.w
      value: 1
      objectReference: {fileID: 0}
    - target: {fileID: 4160656893214053867, guid: 0bce1ad3c6237a54a93db7f869f08ab7,
        type: 3}
      propertyPath: m_RootOrder
      value: 0
      objectReference: {fileID: 0}
    - target: {fileID: 4160656893214053867, guid: 0bce1ad3c6237a54a93db7f869f08ab7,
        type: 3}
      propertyPath: m_LocalEulerAnglesHint.x
      value: 0
      objectReference: {fileID: 0}
    - target: {fileID: 4160656893214053867, guid: 0bce1ad3c6237a54a93db7f869f08ab7,
        type: 3}
      propertyPath: m_LocalEulerAnglesHint.y
      value: 0
      objectReference: {fileID: 0}
    - target: {fileID: 4160656893214053867, guid: 0bce1ad3c6237a54a93db7f869f08ab7,
        type: 3}
      propertyPath: m_LocalEulerAnglesHint.z
      value: 0
      objectReference: {fileID: 0}
    - target: {fileID: 4160656893214053867, guid: 0bce1ad3c6237a54a93db7f869f08ab7,
        type: 3}
      propertyPath: m_LocalScale.x
      value: 0.8
      objectReference: {fileID: 0}
    - target: {fileID: 4160656893214053867, guid: 0bce1ad3c6237a54a93db7f869f08ab7,
        type: 3}
      propertyPath: m_LocalScale.y
      value: 0.8
      objectReference: {fileID: 0}
    - target: {fileID: 4160656893214053867, guid: 0bce1ad3c6237a54a93db7f869f08ab7,
        type: 3}
      propertyPath: m_LocalScale.z
      value: 0.8
      objectReference: {fileID: 0}
    - target: {fileID: 5268869179429793503, guid: 0bce1ad3c6237a54a93db7f869f08ab7,
        type: 3}
      propertyPath: m_Materials.Array.data[1]
      value: 
      objectReference: {fileID: 2100000, guid: d624a671b2c72a442ba09c3f7fa46592, type: 3}
    - target: {fileID: 5268869179429793503, guid: 0bce1ad3c6237a54a93db7f869f08ab7,
        type: 3}
      propertyPath: m_Materials.Array.data[0]
      value: 
      objectReference: {fileID: 2100000, guid: 2ef4d1414ce51664991f9f8da0c69f0b, type: 2}
    m_RemovedComponents: []
  m_SourcePrefab: {fileID: 100100000, guid: 0bce1ad3c6237a54a93db7f869f08ab7, type: 3}
